<svg width="75" height="76" viewBox="0 0 75 76" fill="none" xmlns="http://www.w3.org/2000/svg">
<path d="M9.38428 26.9064H66.6158L63.5222 50.1083H12.0912L9.38428 26.9064Z" fill="#C4C4C4"/>
<path d="M14.9222 74.6305L5.87787 2.88232H69.3387L59.6483 74.6305H14.9222Z" fill="#B0C7DB" fill-opacity="0.4" stroke="#B0C7DB" stroke-width="2"/>
<rect x="0.876953" y="0.61084" width="73.4729" height="3.1788" rx="1.5894" fill="#B0C7DB"/>
</svg>
